{
    "data": [
        {"id": 1, "name": "Item 1"},
        {"id": 2, "name": "Item 2"},
        {"id": 3, "name": "Item 3"}
    ],
    "meta": {
        "current_page": 1,
        "last_page": 3,
        "from": 1,
        "to": 3,
        "per_page": 3,
        "total": 9,
        "path": "https://api.example.com/items"
    },
    "links": {
        "first": "https://api.example.com/items?page=1",
        "last": "https://api.example.com/items?page=3",
        "prev": null,
        "next": "https://api.example.com/items?page=2"
    }
}

