{
    "data": [
        {"id": 1, "name": "Item 1"},
        {"id": 2, "name": "Item 2"},
        {"id": 3, "name": "Item 3"}
    ],
    "paginator": {
        "current_page": 1,
        "total_pages": 3,
        "total_count": 9,
        "per_page": 3
    }
}

